<?xml version="1.0" encoding="utf-8"?>
<!-- Generator: Adobe Illustrator 26.2.1, SVG Export Plug-In . SVG Version: 6.00 Build 0)  -->
<svg version="1.1" id="Layer_1" xmlns="http://www.w3.org/2000/svg" xmlns:xlink="http://www.w3.org/1999/xlink" x="0px" y="0px"
	 viewBox="0 0 16 16" style="enable-background:new 0 0 16 16;" xml:space="preserve">
<style type="text/css">
	.st0{fill:#A4AAF5;}
</style>
<g>
	<path class="st0" d="M7.9,15.7c-3.2,0-5.9-2.6-5.9-5.9c0-3.1,5.4-9.2,5.6-9.4c0.1-0.2,0.4-0.2,0.6,0c0.2,0.3,5.6,6.3,5.6,9.4
		C13.8,13.1,11.2,15.7,7.9,15.7z M7.9,1.3C6.8,2.5,2.8,7.4,2.8,9.8c0,2.8,2.3,5.1,5.1,5.1s5.1-2.3,5.1-5.1C13.1,7.4,9.1,2.5,7.9,1.3
		z"/>
</g>
</svg>
