<?xml version="1.0" encoding="utf-8"?>
<!-- Generator: Adobe Illustrator 26.2.1, SVG Export Plug-In . SVG Version: 6.00 Build 0)  -->
<svg version="1.1" id="Layer_1" xmlns="http://www.w3.org/2000/svg" xmlns:xlink="http://www.w3.org/1999/xlink" x="0px" y="0px"
	 viewBox="0 0 24 24" style="enable-background:new 0 0 24 24;" xml:space="preserve">
<style type="text/css">
	.st0{fill:#606D8C;}
</style>
<path class="st0" d="M12.4,3.4L14.3,9c0.1,0.1,0.2,0.2,0.4,0.2l6,0.1c0.4,0,0.5,0.4,0.2,0.7l-4.8,3.6C16,13.7,16,13.9,16,14l1.7,5.7
	c0.1,0.4-0.3,0.6-0.6,0.4l-4.8-3.4c-0.1-0.1-0.3-0.1-0.4,0l-4.8,3.4c-0.3,0.2-0.7-0.1-0.6-0.4L8.1,14c0.1-0.1,0-0.3-0.1-0.4
	l-4.7-3.6C2.9,9.8,3.1,9.4,3.4,9.4l6-0.1c0.1,0,0.3-0.1,0.4-0.2l1.9-5.6C11.8,3.1,12.2,3.1,12.4,3.4z"/>
</svg>
