<?xml version="1.0" encoding="utf-8"?>
<!-- Generator: Adobe Illustrator 26.2.1, SVG Export Plug-In . SVG Version: 6.00 Build 0)  -->
<svg version="1.1" id="Layer_1" xmlns="http://www.w3.org/2000/svg" xmlns:xlink="http://www.w3.org/1999/xlink" x="0px" y="0px"
	 viewBox="0 0 20 20" style="enable-background:new 0 0 20 20;" xml:space="preserve">
<style type="text/css">
	.st0{fill:none;stroke:#A4AAF5;stroke-width:0.9375;stroke-miterlimit:10;}
</style>
<g>
	<g>
		<polyline class="st0" points="1.8,8.2 17.5,8.2 13.1,3.7 		"/>
		<path class="st0" d="M13.1,3.7"/>
	</g>
	<g>
		<polyline class="st0" points="18.1,11.8 2.4,11.8 6.9,16.3 		"/>
		<path class="st0" d="M6.9,16.3"/>
	</g>
</g>
</svg>
