<?xml version="1.0" encoding="utf-8"?>
<!-- Generator: Adobe Illustrator 26.2.1, SVG Export Plug-In . SVG Version: 6.00 Build 0)  -->
<svg version="1.1" id="Layer_1" xmlns="http://www.w3.org/2000/svg" xmlns:xlink="http://www.w3.org/1999/xlink" x="0px" y="0px"
	 viewBox="0 0 20 20" style="enable-background:new 0 0 20 20;" xml:space="preserve">
<style type="text/css">
	.st0{fill:#E3E4FF;stroke:#E3E4FF;stroke-width:0.25;stroke-miterlimit:10;}
	.st1{fill:none;stroke:#E3E4FF;stroke-width:0.75;stroke-linejoin:round;stroke-miterlimit:10;}
</style>
<g>
	<path class="st0" d="M16.8,5.4H3.2c-0.4,0-0.8-0.3-0.8-0.8c0-0.4,0.3-0.8,0.8-0.8h13.6c0.1,0,0.2-0.1,0.2-0.2
		c0-0.1-0.1-0.2-0.2-0.2H3.2c-0.6,0-1.1,0.4-1.2,1c0,0.1,0,0.1,0,0.1v10.8c0,0.7,0.6,1.2,1.2,1.2h13.5c0.7,0,1.2-0.5,1.2-1.2V6.7
		C18,6,17.4,5.4,16.8,5.4z M17.5,9.7L17.5,9.7l0,0.4v2.2v0.4h0v2.7c0,0.4-0.3,0.8-0.8,0.8H3.2c-0.4,0-0.8-0.3-0.8-0.8V5.6l0.2,0.1
		C2.8,5.8,3,5.9,3.2,5.9h13.5c0.4,0,0.8,0.3,0.8,0.8V9.7z"/>
	<g>
		<polyline class="st1" points="13.3,8.9 9.2,12.9 7.3,11 		"/>
	</g>
</g>
</svg>
