<?xml version="1.0" encoding="utf-8"?>
<!-- Generator: Adobe Illustrator 26.2.1, SVG Export Plug-In . SVG Version: 6.00 Build 0)  -->
<svg version="1.1" id="Layer_1" xmlns="http://www.w3.org/2000/svg" xmlns:xlink="http://www.w3.org/1999/xlink" x="0px" y="0px"
	 viewBox="0 0 16 16" style="enable-background:new 0 0 16 16;" xml:space="preserve">
<style type="text/css">
	.st0{fill:none;stroke:url(#SVGID_1_);stroke-width:0.875;stroke-miterlimit:10;}
	.st1{fill:none;stroke:url(#SVGID_00000183961302503598846590000014850404844119966112_);stroke-width:0.875;stroke-miterlimit:10;}
	.st2{fill:none;stroke:url(#SVGID_00000054951918312096109660000016899742526727188129_);stroke-width:0.875;stroke-miterlimit:10;}
	.st3{fill:none;stroke:url(#SVGID_00000127736436247028839220000017490800982289886392_);stroke-width:0.875;stroke-miterlimit:10;}
</style>
<g>
	<g>
		<linearGradient id="SVGID_1_" gradientUnits="userSpaceOnUse" x1="4.3053" y1="0.5333" x2="4.3053" y2="16.0284">
			<stop  offset="0" style="stop-color:#CEE5E8"/>
			<stop  offset="0.3" style="stop-color:#DDC8F2"/>
			<stop  offset="1" style="stop-color:#819DD6"/>
		</linearGradient>
		<polyline class="st0" points="6.3,0.5 6.3,15 2.2,10.8 		"/>
		
			<linearGradient id="SVGID_00000076577581817116455920000010674752354489769916_" gradientUnits="userSpaceOnUse" x1="2.1667" y1="10.8059" x2="2.1667" y2="10.8059">
			<stop  offset="0" style="stop-color:#CEE5E8"/>
			<stop  offset="0.3" style="stop-color:#DDC8F2"/>
			<stop  offset="1" style="stop-color:#819DD6"/>
		</linearGradient>
		
			<path style="fill:none;stroke:url(#SVGID_00000076577581817116455920000010674752354489769916_);stroke-width:0.875;stroke-miterlimit:10;" d="
			M2.2,10.8"/>
	</g>
	<g>
		
			<linearGradient id="SVGID_00000073690888106525228770000004987799551091696025_" gradientUnits="userSpaceOnUse" x1="11.7744" y1="4.888128e-03" x2="11.7744" y2="15.5">
			<stop  offset="0" style="stop-color:#CEE5E8"/>
			<stop  offset="0.3" style="stop-color:#DDC8F2"/>
			<stop  offset="1" style="stop-color:#819DD6"/>
		</linearGradient>
		
			<polyline style="fill:none;stroke:url(#SVGID_00000073690888106525228770000004987799551091696025_);stroke-width:0.875;stroke-miterlimit:10;" points="
			9.8,15.5 9.8,1.1 13.9,5.2 		"/>
		
			<linearGradient id="SVGID_00000049223663620810383370000002568484918077268149_" gradientUnits="userSpaceOnUse" x1="13.9131" y1="5.2274" x2="13.9131" y2="5.2274">
			<stop  offset="0" style="stop-color:#CEE5E8"/>
			<stop  offset="0.3" style="stop-color:#DDC8F2"/>
			<stop  offset="1" style="stop-color:#819DD6"/>
		</linearGradient>
		
			<path style="fill:none;stroke:url(#SVGID_00000049223663620810383370000002568484918077268149_);stroke-width:0.875;stroke-miterlimit:10;" d="
			M13.9,5.2"/>
	</g>
</g>
</svg>
