<?xml version="1.0" encoding="utf-8"?>
<!-- Generator: Adobe Illustrator 26.2.1, SVG Export Plug-In . SVG Version: 6.00 Build 0)  -->
<svg version="1.1" id="Layer_1" xmlns="http://www.w3.org/2000/svg" xmlns:xlink="http://www.w3.org/1999/xlink" x="0px" y="0px"
	 viewBox="0 0 20 20" style="enable-background:new 0 0 20 20;" xml:space="preserve">
<style type="text/css">
	.st0{fill:#A4AAF5;}
</style>
<g>
	<path class="st0" d="M19.4,8.6l-8.2-2.1l-0.5,0.6L18.2,9L10,12.8L1.8,9l6.9-1.8C8.8,6.9,8.9,6.6,9,6.4L0.6,8.6
		c-0.1,0-0.2,0.1-0.3,0.3c0,0.1,0,0.3,0.1,0.4L9.8,18c0.1,0.1,0.2,0.1,0.2,0.1c0.1,0,0.2,0,0.2-0.1l9.3-8.8c0.1-0.1,0.1-0.2,0.1-0.4
		C19.6,8.7,19.5,8.6,19.4,8.6z M9.6,16.9l-7.1-6.8l7.1,3.3V16.9z M10.4,16.9v-3.5l7.1-3.3L10.4,16.9z"/>
	<g>
		<g>
			<path class="st0" d="M17.5,6.6L17,6.1L19,4.1L17,2l0.5-0.5l2.3,2.3c0.1,0.1,0.1,0.2,0.1,0.3c0,0.1,0,0.2-0.1,0.3L17.5,6.6z"/>
		</g>
		<path class="st0" d="M16.6,3.7c-3.6,0-6.6,2.8-6.9,6.3c0.1,0,0.2,0,0.3,0c0.2,0,0.3,0,0.5,0c0.3-3.1,2.9-5.6,6.2-5.6h2.9V3.7H16.6
			z"/>
	</g>
</g>
</svg>
