<?xml version="1.0" encoding="utf-8"?>
<!-- Generator: Adobe Illustrator 26.2.1, SVG Export Plug-In . SVG Version: 6.00 Build 0)  -->
<svg version="1.1" id="Layer_1" xmlns="http://www.w3.org/2000/svg" xmlns:xlink="http://www.w3.org/1999/xlink" x="0px" y="0px"
	 viewBox="0 0 20 20" style="enable-background:new 0 0 20 20;" xml:space="preserve">
<style type="text/css">
	.st0{opacity:0;fill:#454650;}
	.st1{fill:#A4AAF5;}
</style>
<g>
	<rect x="-3.2" y="-3.2" class="st0" width="26.5" height="26.5"/>
	<path class="st1" d="M13.9,8.9c0.5,1,0.9,2,0.9,2.7c0,2.7-2.2,4.9-4.9,4.9c-2.7,0-4.9-2.2-4.9-4.9C5.1,9.3,9,4.7,10,3.5
		c0.5,0.6,1.8,2.1,2.9,3.7c0.2-0.1,0.4-0.2,0.7-0.3c-1.4-2.2-3.1-4.1-3.3-4.2c-0.1-0.2-0.4-0.2-0.5,0C9.5,3,4.4,8.7,4.4,11.6
		c0,3.1,2.5,5.6,5.6,5.6c3.1,0,5.6-2.5,5.6-5.6c0-0.8-0.4-1.8-0.9-2.9L13.9,8.9z"/>
	<g>
		<path class="st1" d="M17.5,10.7L17,10.2L19,8.1L17,6.1l0.5-0.5l2.3,2.3c0.1,0.1,0.1,0.2,0.1,0.3c0,0.1,0,0.2-0.1,0.3L17.5,10.7z"
			/>
	</g>
	<path class="st1" d="M16.6,7.8c-3.6,0-6.6,2.8-6.9,6.3c0.1,0,0.2,0,0.3,0c0.2,0,0.3,0,0.5,0c0.3-3.1,2.9-5.6,6.2-5.6h2.9V7.8H16.6z
		"/>
</g>
</svg>
