<?xml version="1.0" encoding="utf-8"?>
<!-- Generator: Adobe Illustrator 26.2.1, SVG Export Plug-In . SVG Version: 6.00 Build 0)  -->
<svg version="1.1" id="Layer_6" xmlns="http://www.w3.org/2000/svg" xmlns:xlink="http://www.w3.org/1999/xlink" x="0px" y="0px"
	 viewBox="0 0 24 24" style="enable-background:new 0 0 24 24;" xml:space="preserve">
<style type="text/css">
	.st0{fill:none;stroke:#A4AAF5;stroke-miterlimit:10;}
</style>
<g>
	<g>
		<path class="st0" d="M7,15.2c-0.7-0.1-1.4,0.2-2.2,1c-1.4,1.4-1.6,4.6-1.6,4.6s3.2-0.2,4.6-1.6c0.8-0.8,1.1-1.6,1-2.2L7,15.2z"/>
		<path class="st0" d="M9,9.3L5.9,9.8c-0.6,0.1-1.2,0.5-1.4,1.1L3,14.3c0,0.1,0,0.2,0.1,0.2L6,13.9C6.8,12.5,7.8,10.8,9,9.3z"/>
		<path class="st0" d="M10.1,18l-0.5,2.9C9.5,21,9.6,21,9.7,21l3.3-1.5c0.6-0.3,1-0.8,1.1-1.4l0.5-3.1C13.2,16.2,11.5,17.2,10.1,18z
			"/>
		<path class="st0" d="M9.9,18.1c2.3-1.3,5-3,7.2-5.1C21.6,8.4,21,3,21,3s-5.4-0.6-9.9,3.9C8.9,9.1,7.2,11.8,6,14.1L9.9,18.1z"/>
		<circle class="st0" cx="14" cy="10" r="2.1"/>
	</g>
</g>
</svg>
