<?xml version="1.0" encoding="utf-8"?>
<!-- Generator: Adobe Illustrator 26.2.1, SVG Export Plug-In . SVG Version: 6.00 Build 0)  -->
<svg version="1.1" id="Layer_1" xmlns="http://www.w3.org/2000/svg" xmlns:xlink="http://www.w3.org/1999/xlink" x="0px" y="0px"
	 viewBox="0 0 1440 2539" style="enable-background:new 0 0 1440 2539;" xml:space="preserve">
<style type="text/css">
	.st0{opacity:0.4;clip-path:url(#SVGID_00000104699677495153390170000012709500717431474089_);}
	.st1{fill:#212226;}
	.st2{fill:#72D4B9;}
	.st3{fill:#D47BD0;}
	.st4{fill:#402BFF;}
	.st5{fill:#5C48F6;}
	.st6{fill:#32EDC1;}
	.st7{fill:#32EDED;}
</style>
<g>
	<defs>
		<rect id="SVGID_1_" width="1440" height="2539"/>
	</defs>
	<clipPath id="SVGID_00000029731887198743601250000010134602315393414309_">
		<use xlink:href="#SVGID_1_"  style="overflow:visible;"/>
	</clipPath>
	<g style="opacity:0.4;clip-path:url(#SVGID_00000029731887198743601250000010134602315393414309_);">
		<rect class="st1" width="1440" height="2539"/>
		<g>
			<path class="st2" d="M1375.4,329.8c89.8,24.6,96.2-81.2,168.2-95.7c255.8-51.6,280.1,668.2,16.9,776.7
				c-249,102.7-505.5-487.6-505.5-487.6s-49.6-156.4,0-219.6c44.7-57.1,103.1-54.3,167-34.3C1272.6,285.1,1324.5,315.9,1375.4,329.8
				z"/>
		</g>
		<g>
			<path class="st3" d="M1200,617.1c132.2,36.3,141.6-119.6,247.6-141c376.5-76,412.2,984,24.8,1143.8
				c-366.5,151.2-744.1-718.1-744.1-718.1s-73-230.3,0-323.5c65.8-84.1,151.7-80,245.9-50.5C1048.7,551.3,1125.1,596.6,1200,617.1z"
				/>
		</g>
		<g>
			<ellipse class="st4" cx="889.5" cy="1249.5" rx="446.5" ry="521.3"/>
		</g>
		<g>
			<path class="st5" d="M167.1,1023.5c-50,174.9-71.9,308.1,0,472.2c140.2,319.9,642.4,317.3,786.7,0
				c114.1-250.8-52.5-452.4-173.7-698.6C726.6,688.4,712.8,597.9,619,537.2C409.2,401.4,243.2,757.5,167.1,1023.5z"/>
		</g>
		<g>
			<ellipse class="st6" cx="87" cy="1319.1" rx="356" ry="415.5"/>
		</g>
		<g>
			
				<ellipse transform="matrix(0.9238 -0.3829 0.3829 0.9238 -786.9641 472.6469)" class="st7" cx="794" cy="2213.5" rx="413.6" ry="482.8"/>
		</g>
	</g>
</g>
</svg>
